(Red,Yellow,Green,Red)
(Red,Yellow,Green,Blue)
(Red,Yellow,Blue,Red)
(Red,Yellow,Blue,Green)
(Red,Green,Yellow,Red)
(Red,Green,Yellow,Blue)
(Red,Green,Blue,Red)
(Red,Green,Blue,Yellow)
(Red,Blue,Yellow,Red)
(Red,Blue,Yellow,Green)
(Red,Blue,Green,Red)
(Red,Blue,Green,Yellow)
(Yellow,Red,Green,Yellow)
(Yellow,Red,Green,Blue)
(Yellow,Red,Blue,Yellow)
(Yellow,Red,Blue,Green)
(Yellow,Green,Red,Yellow)
(Yellow,Green,Red,Blue)
(Yellow,Green,Blue,Red)
(Yellow,Green,Blue,Yellow)
(Yellow,Blue,Red,Yellow)
(Yellow,Blue,Red,Green)
(Yellow,Blue,Green,Red)
(Yellow,Blue,Green,Yellow)
(Green,Red,Yellow,Green)
(Green,Red,Yellow,Blue)
(Green,Red,Blue,Yellow)
(Green,Red,Blue,Green)
(Green,Yellow,Red,Green)
(Green,Yellow,Red,Blue)
(Green,Yellow,Blue,Red)
(Green,Yellow,Blue,Green)
(Green,Blue,Red,Yellow)
(Green,Blue,Red,Green)
(Green,Blue,Yellow,Red)
(Green,Blue,Yellow,Green)
(Blue,Red,Yellow,Green)
(Blue,Red,Yellow,Blue)
(Blue,Red,Green,Yellow)
(Blue,Red,Green,Blue)
(Blue,Yellow,Red,Green)
(Blue,Yellow,Red,Blue)
(Blue,Yellow,Green,Red)
(Blue,Yellow,Green,Blue)
(Blue,Green,Red,Yellow)
(Blue,Green,Red,Blue)
(Blue,Green,Yellow,Red)
(Blue,Green,Yellow,Blue)
(Red,Yellow,Green,Red)
(Red,Yellow,Green,Blue)
(Red,Yellow,Blue,Red)
(Red,Yellow,Blue,Green)
(Red,Green,Yellow,Red)
(Red,Green,Yellow,Blue)
(Red,Green,Blue,Red)
(Red,Green,Blue,Yellow)
(Red,Blue,Yellow,Red)
(Red,Blue,Yellow,Green)
(Red,Blue,Green,Red)
(Red,Blue,Green,Yellow)
(Yellow,Red,Green,Yellow)
(Yellow,Red,Green,Blue)
(Yellow,Red,Blue,Yellow)
(Yellow,Red,Blue,Green)
(Yellow,Green,Red,Yellow)
(Yellow,Green,Red,Blue)
(Yellow,Green,Blue,Red)
(Yellow,Green,Blue,Yellow)
(Yellow,Blue,Red,Yellow)
(Yellow,Blue,Red,Green)
(Yellow,Blue,Green,Red)
(Yellow,Blue,Green,Yellow)
(Green,Red,Yellow,Green)
(Green,Red,Yellow,Blue)
(Green,Red,Blue,Yellow)
(Green,Red,Blue,Green)
(Green,Yellow,Red,Green)
(Green,Yellow,Red,Blue)
(Green,Yellow,Blue,Red)
(Green,Yellow,Blue,Green)
(Green,Blue,Red,Yellow)
(Green,Blue,Red,Green)
(Green,Blue,Yellow,Red)
(Green,Blue,Yellow,Green)
(Blue,Red,Yellow,Green)
(Blue,Red,Yellow,Blue)
(Blue,Red,Green,Yellow)
(Blue,Red,Green,Blue)
(Blue,Yellow,Red,Green)
(Blue,Yellow,Red,Blue)
(Blue,Yellow,Green,Red)
(Blue,Yellow,Green,Blue)
(Blue,Green,Red,Yellow)
(Blue,Green,Red,Blue)
(Blue,Green,Yellow,Red)
(Blue,Green,Yellow,Blue)
